com\security\EndpointsConfig.class
com\bookinManagment\Dto\BookingDto.class
com\movieManagment\Dto\MovieResponce.class
com\movieManagment\Service\MovieService.class
com\movieManagment\Dto\MovieDto.class
com\bookinManagment\Dto\PojoClass.class
com\movieManagment\Dto\LeaseEndDates.class
com\movieManagment\Dto\CriteriaDto.class
com\utill\SessionUtill.class
com\movieManagment\Controller\CriteriaController.class
com\movieManagment\Dao\MovieDao.class
com\movieManagment\Dto\CriteriaMovie.class
com\utill\TypedQueryBuilder.class
com\movieManagment\Controller\MovieController.class
com\security\AuthenticationFilter.class
com\movieManagment\Service\CriteriaService.class
com\movieManagment\Dao\CriteriaDao.class
com\movieManagment\Dto\SearchParms.class
